{
  "version": "graphviz-2.47.1",
  "archives": [
    {
      "format": "tar.xz",
      "url": "https://gitlab.com/graphviz/graphviz/-/package_files/9573974/download",
      "md5": "https://gitlab.com/graphviz/graphviz/-/package_files/9573975/download",
      "sha256": "https://gitlab.com/graphviz/graphviz/-/package_files/9573976/download"
    },
    {
      "format": "tar.gz",
      "url": "https://gitlab.com/graphviz/graphviz/-/package_files/9573971/download",
      "md5": "https://gitlab.com/graphviz/graphviz/-/package_files/9573972/download",
      "sha256": "https://gitlab.com/graphviz/graphviz/-/package_files/9573973/download"
    }
  ]
}
